usb_project/blinky/dump.vcd
$date
	Fri Apr  3 23:38:21 2026
$end
$version
	Icarus Verilog
$end
$timescale
	1ps
$end
$scope module tb_counter $end
$var wire 4 ! count [3:0] $end
$var reg 1 " clk $end
$scope module uut $end
$var wire 1 " clk $end
$var reg 4 # count [3:0] $end
$upscope $end
$upscope $end
$enddefinitions $end
$comment Show the parameter values. $end
$dumpall
$end
#0
$dumpvars
b0 #
0"
b0 !
$end
#5000
b1 !
b1 #
1"
#10000
0"
#15000
b10 !
b10 #
1"
#20000
0"
#25000
b11 !
b11 #
1"
#30000
0"
#35000
b100 !
b100 #
1"
#40000
0"
#45000
b101 !
b101 #
1"
#50000
0"
#55000
b110 !
b110 #
1"
#60000
0"
#65000
b111 !
b111 #
1"
#70000
0"
#75000
b1000 !
b1000 #
1"
#80000
0"
#85000
b1001 !
b1001 #
1"
#90000
0"
#95000
b1010 !
b1010 #
1"
